{
  "dev": {
    "awscloudformation": {
      "AuthRoleName": "amplify-twitcloneproject-dev-22052-authRole",
      "UnauthRoleArn": "arn:aws:iam::827048116803:role/amplify-twitcloneproject-dev-22052-unauthRole",
      "AuthRoleArn": "arn:aws:iam::827048116803:role/amplify-twitcloneproject-dev-22052-authRole",
      "Region": "us-east-2",
      "DeploymentBucketName": "amplify-twitcloneproject-dev-22052-deployment",
      "UnauthRoleName": "amplify-twitcloneproject-dev-22052-unauthRole",
      "StackName": "amplify-twitcloneproject-dev-22052",
      "StackId": "arn:aws:cloudformation:us-east-2:827048116803:stack/amplify-twitcloneproject-dev-22052/ef0f5bd0-46dd-11eb-a6ca-02bc054e6d02",
      "AmplifyAppId": "dnel3xjmcq9nd"
    },
    "categories": {
      "auth": {
        "twitcloneproject3477ce41": {}
      }
    }
  }
}